<?xml version="1.0" encoding="UTF-8" standalone="no"?>
<svg width="14px" height="22px" viewBox="0 0 14 22" version="1.1" xmlns="http://www.w3.org/2000/svg" xmlns:xlink="http://www.w3.org/1999/xlink" xmlns:sketch="http://www.bohemiancoding.com/sketch/ns">
    <!-- Generator: Sketch 3.3.3 (12081) - http://www.bohemiancoding.com/sketch -->
    <title>Imported Layers</title>
    <desc>Created with Sketch.</desc>
    <defs></defs>
    <g id="Page-1" stroke="none" stroke-width="1" fill="none" fill-rule="evenodd" sketch:type="MSPage">
        <g id="index-3-images" sketch:type="MSArtboardGroup" transform="translate(-109.000000, -544.000000)" stroke="#FFFFFF" fill="#FFFFFF">
            <g id="slider" sketch:type="MSLayerGroup" transform="translate(-288.000000, -111.000000)">
                <g id="nav" transform="translate(338.000000, 647.000000)" sketch:type="MSShapeGroup">
                    <path d="M60.523,11.5180909 L68.382,19.0198636 L60.42,26.6199545 L60.421,26.6199545 C60.16,26.8776818 60,27.228 60,27.6136364 C60,28.404 60.672,29.0454545 61.5,29.0454545 C61.904,29.0454545 62.271,28.8927273 62.541,28.6445455 L62.542,28.6445455 L71.542,20.0536364 L71.541,20.0536364 C71.824,19.7930455 72,19.4274545 72,19.0227273 L72,19.0198636 L72,19.0160455 C72,18.6113182 71.824,18.2466818 71.541,17.9860909 L71.542,17.9851364 L62.542,9.39518182 L62.538,9.39804545 C62.268,9.15177273 61.903,9 61.5,9 C60.672,9 60,9.64145455 60,10.4318182 C60,10.8661364 60.203,11.2555909 60.523,11.5180909" id="Imported-Layers"></path>
                </g>
            </g>
        </g>
    </g>
</svg>