<?xml version="1.0" encoding="utf-8"?>
<!-- Generator: Adobe Illustrator 18.0.0, SVG Export Plug-In . SVG Version: 6.00 Build 0)  -->
<!DOCTYPE svg PUBLIC "-//W3C//DTD SVG 1.1//EN" "http://www.w3.org/Graphics/SVG/1.1/DTD/svg11.dtd">
<svg version="1.1" id="Layer_1" xmlns="http://www.w3.org/2000/svg" xmlns:xlink="http://www.w3.org/1999/xlink" x="0px" y="0px"
	 viewBox="0 0 14 22" enable-background="new 0 0 14 22" xml:space="preserve">
<title>next</title>
<desc>Created with Sketch.</desc>
<g id="Page-1_1_">
	
		<g id="next" transform="translate(7.000000, 10.500000) rotate(180.000000) translate(-7.000000, -10.500000) translate(1.000000, 0.000000)">
		<g id="Page-1">
			<g id="index-3-images">
				<g id="slider">
					<g id="nav">
						<path id="Imported-Layers" fill="#FFFFFF" stroke="#848484" d="M8.4,10c0,0-7.9,7.5-8,7.6c-0.3,0.3-0.4,0.6-0.4,1
							C0,19.4,0.7,20,1.5,20c0.4,0,0.8-0.2,1-0.4l9-8.6c0.3-0.3,0.5-0.6,0.5-1c0-0.4-0.2-0.8-0.5-1l-9-8.5C2.2,0.3,1.9,0,1.5,0
							C0.7,0,0,0.6,0,1.4c0,0.4,0.2,0.8,0.5,1.1L8.4,10z"/>
					</g>
				</g>
			</g>
		</g>
	</g>
</g>
</svg>
