<?xml version="1.0" encoding="UTF-8" standalone="no"?>
<svg width="51px" height="32px" viewBox="0 0 51 32" version="1.1" xmlns="http://www.w3.org/2000/svg" xmlns:xlink="http://www.w3.org/1999/xlink">
    <g id="Page-1" stroke="none" stroke-width="1" fill="none" fill-rule="evenodd">
        <g id="40-google-plus" fill="#dd4b39">
            <g id="Group">
                <path d="M16.6671,13.7867 C16.6596,15.5802 16.6671,17.3736 16.6747,19.167 C19.6814,19.265 22.6955,19.2197 25.7022,19.265 C24.376,25.9339 15.3033,28.0965 10.5032,23.7411 C5.5674,19.9206 5.801,11.5412 10.9327,7.992 C14.5196,5.1285 19.6211,5.8368 23.2079,8.316 C24.6171,7.0124 25.9357,5.6183 27.2092,4.1715 C24.2252,1.7903 20.563,0.0948 16.6671,0.2757 C8.5364,0.0044 1.0612,7.1254 0.9256,15.2562 C0.4056,21.9024 4.7762,28.4206 10.9478,30.7717 C17.0967,33.1378 24.9788,31.5252 28.9048,26.0017 C31.497,22.5128 32.0546,18.0217 31.7532,13.8018 C26.7194,13.7641 21.6933,13.7716 16.6671,13.7867 L16.6671,13.7867 Z" id="Shape"></path>
                <path d="M46.0704,13.7641 C46.0553,12.2645 46.0478,10.7574 46.0403,9.2579 L41.5567,9.2579 C41.5416,10.7575 41.5266,12.257 41.519,13.7641 C40.0119,13.7716 38.5123,13.7792 37.0128,13.7943 L37.0128,18.2779 C38.5123,18.293 40.0194,18.3081 41.519,18.3231 C41.5341,19.8227 41.5341,21.3222 41.5492,22.8218 L46.0403,22.8218 C46.0478,21.3222 46.0553,19.8227 46.0704,18.3156 C47.5775,18.3005 49.0771,18.293 50.5766,18.2779 L50.5766,13.7943 C49.0771,13.7792 47.57,13.7792 46.0704,13.7641 L46.0704,13.7641 Z" id="Shape"></path>
            </g>
        </g>
    </g>
</svg>
